[
{"header": "This is your 365", "image_urls": ["https://img-prod-cms-rt-microsoft-com.akamaized.net/cms/api/am/imageFileData/RE2MLH2?ver=052a&q=90&m=8&h=600&w=1600&b=%23FFFFFFFF&l=f&x=0&y=167&s=2120&d=795&aim=true"], "images": [{"url": "https://img-prod-cms-rt-microsoft-com.akamaized.net/cms/api/am/imageFileData/RE2MLH2?ver=052a&q=90&m=8&h=600&w=1600&b=%23FFFFFFFF&l=f&x=0&y=167&s=2120&d=795&aim=true", "path": "full/2d7767fd6beaf5504f7685e19c9bc0c16eb4e667.jpg", "checksum": "126bf9381562f4ca91a3413a9c675049"}]}
][
{"header": "This is your 365", "image_urls": ["https://img-prod-cms-rt-microsoft-com.akamaized.net/cms/api/am/imageFileData/RE2MLH2?ver=052a&q=90&m=8&h=600&w=1600&b=%23FFFFFFFF&l=f&x=0&y=167&s=2120&d=795&aim=true"], "images": [{"url": "https://img-prod-cms-rt-microsoft-com.akamaized.net/cms/api/am/imageFileData/RE2MLH2?ver=052a&q=90&m=8&h=600&w=1600&b=%23FFFFFFFF&l=f&x=0&y=167&s=2120&d=795&aim=true", "path": "full/2d7767fd6beaf5504f7685e19c9bc0c16eb4e667.jpg", "checksum": "126bf9381562f4ca91a3413a9c675049"}]}
][
{"header": "This is your 365", "image_urls": ["https://img-prod-cms-rt-microsoft-com.akamaized.net/cms/api/am/imageFileData/RE2MLH2?ver=052a&q=90&m=8&h=600&w=1600&b=%23FFFFFFFF&l=f&x=0&y=167&s=2120&d=795&aim=true"], "images": [{"url": "https://img-prod-cms-rt-microsoft-com.akamaized.net/cms/api/am/imageFileData/RE2MLH2?ver=052a&q=90&m=8&h=600&w=1600&b=%23FFFFFFFF&l=f&x=0&y=167&s=2120&d=795&aim=true", "path": "full/2d7767fd6beaf5504f7685e19c9bc0c16eb4e667.jpg", "checksum": "126bf9381562f4ca91a3413a9c675049"}]}
][
{"header": "This is your 365", "image_urls": ["https://img-prod-cms-rt-microsoft-com.akamaized.net/cms/api/am/imageFileData/RE2MLH2?ver=052a&q=90&m=8&h=600&w=1600&b=%23FFFFFFFF&l=f&x=0&y=167&s=2120&d=795&aim=true"], "images": [{"url": "https://img-prod-cms-rt-microsoft-com.akamaized.net/cms/api/am/imageFileData/RE2MLH2?ver=052a&q=90&m=8&h=600&w=1600&b=%23FFFFFFFF&l=f&x=0&y=167&s=2120&d=795&aim=true", "path": "full/2d7767fd6beaf5504f7685e19c9bc0c16eb4e667.jpg", "checksum": "126bf9381562f4ca91a3413a9c675049"}]}
][
{"header": "This is your 365", "image_urls": ["https://img-prod-cms-rt-microsoft-com.akamaized.net/cms/api/am/imageFileData/RE2MLH2?ver=052a&q=90&m=8&h=600&w=1600&b=%23FFFFFFFF&l=f&x=0&y=167&s=2120&d=795&aim=true"], "images": [{"url": "https://img-prod-cms-rt-microsoft-com.akamaized.net/cms/api/am/imageFileData/RE2MLH2?ver=052a&q=90&m=8&h=600&w=1600&b=%23FFFFFFFF&l=f&x=0&y=167&s=2120&d=795&aim=true", "path": "full/2d7767fd6beaf5504f7685e19c9bc0c16eb4e667.jpg", "checksum": "126bf9381562f4ca91a3413a9c675049"}]}
][
{"header": "This is your 365", "image_urls": ["https://img-prod-cms-rt-microsoft-com.akamaized.net/cms/api/am/imageFileData/RE2MLH2?ver=052a&q=90&m=8&h=600&w=1600&b=%23FFFFFFFF&l=f&x=0&y=167&s=2120&d=795&aim=true"], "images": [{"url": "https://img-prod-cms-rt-microsoft-com.akamaized.net/cms/api/am/imageFileData/RE2MLH2?ver=052a&q=90&m=8&h=600&w=1600&b=%23FFFFFFFF&l=f&x=0&y=167&s=2120&d=795&aim=true", "path": "full/2d7767fd6beaf5504f7685e19c9bc0c16eb4e667.jpg", "checksum": "126bf9381562f4ca91a3413a9c675049"}]}
][
{"header": "This is your 365", "image_urls": ["https://img-prod-cms-rt-microsoft-com.akamaized.net/cms/api/am/imageFileData/RE2MLH2?ver=052a&q=90&m=8&h=600&w=1600&b=%23FFFFFFFF&l=f&x=0&y=167&s=2120&d=795&aim=true"], "images": [{"url": "https://img-prod-cms-rt-microsoft-com.akamaized.net/cms/api/am/imageFileData/RE2MLH2?ver=052a&q=90&m=8&h=600&w=1600&b=%23FFFFFFFF&l=f&x=0&y=167&s=2120&d=795&aim=true", "path": "full/2d7767fd6beaf5504f7685e19c9bc0c16eb4e667.jpg", "checksum": "126bf9381562f4ca91a3413a9c675049"}]}
]